127.0.0.1 - - [08/Jan/2024:10:12:31 +0530] "GET / HTTP/1.1" 404 751
0:0:0:0:0:0:0:1 - - [08/Jan/2024:10:12:32 +0530] "GET /EmpWebApp/Login.html HTTP/1.1" 304 -
0:0:0:0:0:0:0:1 - - [08/Jan/2024:10:12:32 +0530] "GET /favicon.ico HTTP/1.1" 404 762
0:0:0:0:0:0:0:1 - - [08/Jan/2024:10:12:41 +0530] "POST /EmpWebApp/LoginServlet HTTP/1.1" 200 361
0:0:0:0:0:0:0:1 - - [08/Jan/2024:10:12:44 +0530] "GET /EmpWebApp/HRHomePage HTTP/1.1" 200 363
0:0:0:0:0:0:0:1 - - [08/Jan/2024:10:12:47 +0530] "GET /EmpWebApp/GetAllEmps HTTP/1.1" 200 932
0:0:0:0:0:0:0:1 - - [08/Jan/2024:10:12:49 +0530] "GET /EmpWebApp/HRHomePage HTTP/1.1" 200 363
127.0.0.1 - - [08/Jan/2024:11:04:13 +0530] "GET / HTTP/1.1" 404 751
0:0:0:0:0:0:0:1 - - [08/Jan/2024:11:04:24 +0530] "POST /EmpWebApp/LoginServlet HTTP/1.1" 200 666
0:0:0:0:0:0:0:1 - - [08/Jan/2024:11:04:27 +0530] "GET /EmpWebApp/GetAllEmps HTTP/1.1" 200 1235
0:0:0:0:0:0:0:1 - - [08/Jan/2024:11:04:29 +0530] "GET /EmpWebApp/GetEmpById.html HTTP/1.1" 304 -
0:0:0:0:0:0:0:1 - - [08/Jan/2024:11:04:39 +0530] "POST /EmpWebApp/GetEmpById HTTP/1.1" 200 919
0:0:0:0:0:0:0:1 - - [08/Jan/2024:11:04:56 +0530] "POST /EmpWebApp/LoginServlet HTTP/1.1" 200 257
127.0.0.1 - - [08/Jan/2024:11:21:17 +0530] "GET / HTTP/1.1" 404 751
0:0:0:0:0:0:0:1 - - [08/Jan/2024:11:21:26 +0530] "POST /EmpWebApp/LoginServlet HTTP/1.1" 405 751
0:0:0:0:0:0:0:1 - - [08/Jan/2024:11:22:55 +0530] "POST /EmpWebApp/LoginServlet HTTP/1.1" 405 751
127.0.0.1 - - [08/Jan/2024:11:43:04 +0530] "GET / HTTP/1.1" 404 751
0:0:0:0:0:0:0:1 - - [08/Jan/2024:11:43:17 +0530] "POST /EmpWebApp/LoginServlet HTTP/1.1" 405 751
0:0:0:0:0:0:0:1 - - [08/Jan/2024:11:44:08 +0530] "POST /EmpWebApp/LoginServlet HTTP/1.1" 405 751
0:0:0:0:0:0:0:1 - - [08/Jan/2024:11:45:05 +0530] "POST /EmpWebApp/LoginServlet HTTP/1.1" 405 751
127.0.0.1 - - [08/Jan/2024:11:45:47 +0530] "GET / HTTP/1.1" 404 751
0:0:0:0:0:0:0:1 - - [08/Jan/2024:11:45:57 +0530] "POST /EmpWebApp/LoginServlet HTTP/1.1" 405 751
127.0.0.1 - - [08/Jan/2024:11:50:03 +0530] "GET / HTTP/1.1" 404 751
0:0:0:0:0:0:0:1 - - [08/Jan/2024:11:50:10 +0530] "POST /EmpWebApp/LoginServlet HTTP/1.1" 200 666
0:0:0:0:0:0:0:1 - - [08/Jan/2024:11:50:14 +0530] "GET /EmpWebApp/GetAllEmps HTTP/1.1" 200 1235
0:0:0:0:0:0:0:1 - - [08/Jan/2024:11:50:17 +0530] "GET /EmpWebApp/HRHomePage.jsp HTTP/1.1" 200 666
0:0:0:0:0:0:0:1 - - [08/Jan/2024:11:51:04 +0530] "POST /EmpWebApp/LoginServlet HTTP/1.1" 200 294
0:0:0:0:0:0:0:1 - - [08/Jan/2024:11:51:08 +0530] "GET /EmpWebApp/Profile HTTP/1.1" 500 447
0:0:0:0:0:0:0:1 - - [08/Jan/2024:11:51:10 +0530] "GET /EmpWebApp/Profile HTTP/1.1" 500 447
0:0:0:0:0:0:0:1 - - [08/Jan/2024:11:51:11 +0530] "GET /EmpWebApp/Profile HTTP/1.1" 500 447
0:0:0:0:0:0:0:1 - - [08/Jan/2024:11:51:12 +0530] "GET /EmpWebApp/Profile HTTP/1.1" 500 447
0:0:0:0:0:0:0:1 - - [08/Jan/2024:11:51:13 +0530] "GET /EmpWebApp/Profile HTTP/1.1" 500 447
127.0.0.1 - - [08/Jan/2024:11:55:11 +0530] "GET / HTTP/1.1" 404 751
0:0:0:0:0:0:0:1 - - [08/Jan/2024:11:55:18 +0530] "POST /EmpWebApp/LoginServlet HTTP/1.1" 405 751
0:0:0:0:0:0:0:1 - - [08/Jan/2024:11:56:02 +0530] "GET /EmpWebApp/Profile HTTP/1.1" 500 447
0:0:0:0:0:0:0:1 - - [08/Jan/2024:11:59:45 +0530] "POST /EmpWebApp/LoginServlet HTTP/1.1" 405 751
127.0.0.1 - - [08/Jan/2024:12:01:44 +0530] "GET / HTTP/1.1" 404 751
0:0:0:0:0:0:0:1 - - [08/Jan/2024:12:01:52 +0530] "POST /EmpWebApp/LoginServlet HTTP/1.1" 405 751
0:0:0:0:0:0:0:1 - - [08/Jan/2024:12:02:00 +0530] "GET /EmpWebApp/Login.html HTTP/1.1" 304 -
0:0:0:0:0:0:0:1 - - [08/Jan/2024:12:02:06 +0530] "POST /EmpWebApp/LoginServlet HTTP/1.1" 405 751
127.0.0.1 - - [08/Jan/2024:12:02:32 +0530] "GET / HTTP/1.1" 404 751
0:0:0:0:0:0:0:1 - - [08/Jan/2024:12:02:39 +0530] "POST /EmpWebApp/LoginServlet HTTP/1.1" 405 751
0:0:0:0:0:0:0:1 - - [08/Jan/2024:12:03:16 +0530] "GET /EmpWebApp/LoginServlet HTTP/1.1" 500 8
0:0:0:0:0:0:0:1 - - [08/Jan/2024:12:03:24 +0530] "POST /EmpWebApp/LoginServlet HTTP/1.1" 200 294
0:0:0:0:0:0:0:1 - - [08/Jan/2024:12:03:27 +0530] "GET /EmpWebApp/Profile HTTP/1.1" 500 447
127.0.0.1 - - [08/Jan/2024:12:06:19 +0530] "GET / HTTP/1.1" 404 751
0:0:0:0:0:0:0:1 - - [08/Jan/2024:12:06:32 +0530] "POST /EmpWebApp/LoginServlet HTTP/1.1" 200 294
0:0:0:0:0:0:0:1 - - [08/Jan/2024:12:06:34 +0530] "GET /EmpWebApp/Profile HTTP/1.1" 500 447
127.0.0.1 - - [08/Jan/2024:12:10:59 +0530] "GET / HTTP/1.1" 404 751
0:0:0:0:0:0:0:1 - - [08/Jan/2024:12:11:13 +0530] "POST /EmpWebApp/LoginServlet HTTP/1.1" 200 666
127.0.0.1 - - [08/Jan/2024:12:16:06 +0530] "GET / HTTP/1.1" 404 751
0:0:0:0:0:0:0:1 - - [08/Jan/2024:12:16:16 +0530] "POST /EmpWebApp/LoginServlet HTTP/1.1" 200 664
0:0:0:0:0:0:0:1 - - [08/Jan/2024:12:16:22 +0530] "GET /EmpWebApp/Logout HTTP/1.1" 304 -
0:0:0:0:0:0:0:1 - - [08/Jan/2024:12:16:29 +0530] "POST /EmpWebApp/LoginServlet HTTP/1.1" 200 306
0:0:0:0:0:0:0:1 - - [08/Jan/2024:12:16:31 +0530] "GET /EmpWebApp/Profile HTTP/1.1" 200 585
127.0.0.1 - - [08/Jan/2024:12:27:27 +0530] "GET / HTTP/1.1" 404 751
0:0:0:0:0:0:0:1 - - [08/Jan/2024:12:27:36 +0530] "POST /EmpWebApp/LoginServlet HTTP/1.1" 200 529
0:0:0:0:0:0:0:1 - - [08/Jan/2024:12:29:12 +0530] "GET /EmpWebApp/LoginServlet HTTP/1.1" 500 8
0:0:0:0:0:0:0:1 - - [08/Jan/2024:12:29:19 +0530] "POST /EmpWebApp/LoginServlet HTTP/1.1" 200 633
0:0:0:0:0:0:0:1 - - [08/Jan/2024:12:30:02 +0530] "GET /EmpWebApp/LoginServlet HTTP/1.1" 500 8
0:0:0:0:0:0:0:1 - - [08/Jan/2024:12:30:06 +0530] "POST /EmpWebApp/LoginServlet HTTP/1.1" 200 585
0:0:0:0:0:0:0:1 - - [08/Jan/2024:12:30:08 +0530] "GET /EmpWebApp/Profile HTTP/1.1" 200 864
127.0.0.1 - - [08/Jan/2024:12:41:40 +0530] "GET / HTTP/1.1" 404 751
0:0:0:0:0:0:0:1 - - [08/Jan/2024:12:41:47 +0530] "POST /EmpWebApp/LoginServlet HTTP/1.1" 200 585
0:0:0:0:0:0:0:1 - - [08/Jan/2024:12:41:49 +0530] "GET /EmpWebApp/Profile HTTP/1.1" 200 864
0:0:0:0:0:0:0:1 - - [08/Jan/2024:12:42:15 +0530] "POST /EmpWebApp/LoginServlet HTTP/1.1" 200 663
0:0:0:0:0:0:0:1 - - [08/Jan/2024:12:42:18 +0530] "GET /EmpWebApp/GetAllEmps HTTP/1.1" 200 1641
0:0:0:0:0:0:0:1 - - [08/Jan/2024:12:42:19 +0530] "GET /EmpWebApp/GetEmpById.jsp HTTP/1.1" 200 1196
0:0:0:0:0:0:0:1 - - [08/Jan/2024:12:42:23 +0530] "POST /EmpWebApp/GetEmpById HTTP/1.1" 200 1263
127.0.0.1 - - [08/Jan/2024:13:00:03 +0530] "GET / HTTP/1.1" 404 751
0:0:0:0:0:0:0:1 - - [08/Jan/2024:13:00:12 +0530] "POST /EmpWebApp/LoginServlet HTTP/1.1" 200 589
0:0:0:0:0:0:0:1 - - [08/Jan/2024:13:00:14 +0530] "GET /EmpWebApp/Profile.jsp HTTP/1.1" 200 1223
0:0:0:0:0:0:0:1 - - [08/Jan/2024:13:00:16 +0530] "GET /EmpWebApp/EmpHomePage.jsp HTTP/1.1" 200 589
0:0:0:0:0:0:0:1 - - [08/Jan/2024:13:00:25 +0530] "POST /EmpWebApp/LoginServlet HTTP/1.1" 200 663
0:0:0:0:0:0:0:1 - - [08/Jan/2024:13:00:28 +0530] "GET /EmpWebApp/GetAllEmps HTTP/1.1" 200 1641
0:0:0:0:0:0:0:1 - - [08/Jan/2024:13:00:30 +0530] "GET /EmpWebApp/GetEmpById.jsp HTTP/1.1" 200 1196
0:0:0:0:0:0:0:1 - - [08/Jan/2024:13:00:34 +0530] "GET /EmpWebApp/HRHomePage.jsp HTTP/1.1" 200 663
